[
  "Afghanistan",
  "Åland Islands",
  "Albania",
  "Algeria",
  "American Samoa",
  "Angola",
  "Anguilla",
  "Antigua and Barbuda",
  "Argentina",
  "Armenia",
  "Aruba",
  "Australia",
  "Austria",
  "Azerbaijan",
  "Bahamas",
  "Bahrain",
  "Bangladesh",
  "Barbados",
  "Belarus",
  "Belgium",
  "Belize",
  "Benin",
  "Bermuda",
  "Bhutan",
  "Bolivia (Plurinational State of)",
  "Bonaire, Sint Eustatius and Saba",
  "Bosnia and Herzegovina",
  "Botswana",
  "Brazil",
  "Brunei Darussalam",
  "Bulgaria",
  "Burkina Faso",
  "Burundi",
  "Cabo Verde",
  "Cambodia",
  "Cameroon",
  "Canada",
  "Cayman Islands",
  "Central African Republic",
  "Chad",
  "Chile",
  "China",
  "Christmas Island",
  "Cocos (Keeling) Islands",
  "Colombia",
  "Comoros",
  "Congo",
  "Congo (Democratic Republic of the)",
  "Cook Islands",
  "Costa Rica",
  "Côte d'Ivoire",
  "Croatia",
  "Cuba",
  "Curaçao",
  "Cyprus",
  "Czech Republic",
  "Denmark",
  "Djibouti",
  "Dominica",
  "Dominican Republic",
  "Ecuador",
  "Egypt",
  "El Salvador",
  "Equatorial Guinea",
  "Eritrea",
  "Estonia",
  "Ethiopia",
  "Falkland Islands (Malvinas)",
  "Faroe Islands",
  "Fiji",
  "Finland",
  "France",
  "French Guiana",
  "French Polynesia",
  "Gabon",
  "Gambia",
  "Georgia",
  "Germany",
  "Ghana",
  "Gibraltar",
  "Greece",
  "Greenland",
  "Grenada",
  "Guadeloupe",
  "Guam",
  "Guatemala",
  "Guernsey",
  "Guinea",
  "Guinea-Bissau",
  "Guyana",
  "Haiti",
  "Honduras",
  "Hong Kong",
  "Hungary",
  "Iceland",
  "India",
  "Indonesia",
  "Iran (Islamic Republic of)",
  "Iraq",
  "Ireland",
  "Isle of Man",
  "Israel",
  "Italy",
  "Jamaica",
  "Japan",
  "Jersey",
  "Jordan",
  "Kazakhstan",
  "Kenya",
  "Kiribati",
  "Korea (Democratic People's Republic of)",
  "Korea (Republic of)",
  "Kuwait",
  "Kyrgyzstan",
  "Lao People's Democratic Republic",
  "Latvia",
  "Lebanon",
  "Lesotho",
  "Liberia",
  "Libya",
  "Lithuania",
  "Luxembourg",
  "Macao",
  "Macedonia (the former Yugoslav Republic of)",
  "Madagascar",
  "Malawi",
  "Malaysia",
  "Maldives",
  "Mali",
  "Malta",
  "Marshall Islands",
  "Martinique",
  "Mauritania",
  "Mauritius",
  "Mayotte",
  "Mexico",
  "Micronesia (Federated States of)",
  "Moldova (Republic of)",
  "Mongolia",
  "Montenegro",
  "Montserrat",
  "Morocco",
  "Mozambique",
  "Myanmar",
  "Namibia",
  "Nauru",
  "Nepal",
  "Netherlands",
  "New Caledonia",
  "New Zealand",
  "Nicaragua",
  "Niger",
  "Nigeria",
  "Niue",
  "Norfolk Island",
  "Northern Mariana Islands",
  "Norway",
  "Oman",
  "Pakistan",
  "Palau",
  "Panama",
  "Papua New Guinea",
  "Paraguay",
  "Peru",
  "Philippines",
  "Poland",
  "Portugal",
  "Puerto Rico",
  "Qatar",
  "Réunion",
  "Romania",
  "Russian Federation",
  "Rwanda",
  "Saint Barthélemy",
  "Saint Helena, Ascension and Tristan da Cunha",
  "Saint Kitts and Nevis",
  "Saint Lucia",
  "Saint Martin (French part)",
  "Saint Pierre and Miquelon",
  "Saint Vincent and the Grenadines",
  "Samoa",
  "Sao Tome and Principe",
  "Saudi Arabia",
  "Senegal",
  "Serbia",
  "Seychelles",
  "Sierra Leone",
  "Singapore",
  "Sint Maarten (Dutch part)",
  "Slovakia",
  "Slovenia",
  "Solomon Islands",
  "Somalia",
  "South Africa",
  "South Sudan",
  "Spain",
  "Sri Lanka",
  "Sudan",
  "Suriname",
  "Svalbard and Jan Mayen",
  "Sweden",
  "Switzerland",
  "Syrian Arab Republic",
  "Taiwan",
  "Tajikistan",
  "Tanzania, United Republic of",
  "Thailand",
  "Timor-Leste",
  "Togo",
  "Tonga",
  "Trinidad and Tobago",
  "Tunisia",
  "Turkey",
  "Turkmenistan",
  "Turks and Caicos Islands",
  "Tuvalu",
  "Uganda",
  "Ukraine",
  "United Arab Emirates",
  "United Kingdom of Great Britain and Northern Ireland",
  "United States of America",
  "Uruguay",
  "Uzbekistan",
  "Vanuatu",
  "Venezuela (Bolivarian Republic of)",
  "Viet Nam",
  "Virgin Islands (British)",
  "Virgin Islands (U.S.)",
  "Wallis and Futuna",
  "Zambia",
  "Zimbabwe"
]
